Introduction to R for Stata Users
…
---
# create new column (2/n)

The original dataframe imported from the `gapminder` package.

```r
df 
```

```
## # A tibble: 1,704 x 6
##    country     continent  year lifeExp      pop gdpPercap
##    <fct>       <fct>     <int>   <dbl>    <int>     <dbl>
##  1 Afghanistan Asia       1952    28.8  8425333      779.
##  2 Afghanistan Asia       1957    30.3  9240934      821.
##  3 Afghanistan Asia       1962    32.0 10267083      853.
##  4 Afghanistan Asia       1967    34.0 11537966      836.
##  5 Afghanistan Asia       1972    36.1 13079460      740.
##  6 Afghanistan Asia       1977    38.4 14880372      786.
##  7 Afghanistan Asia       1982    39.9 12881816      978.
##  8 Afghanistan Asia       1987    40.8 13867957      852.
##  9 Afghanistan Asia       1992    41.7 16317921      649.
## 10 Afghanistan Asia       1997    41.8 22227415      635.
## # … with 1,694 more rows
```

---
# create new column (3/n)

New column `pop_mn` has been created.

```r
df %>% 
  mutate(pop_mn = pop / 1000000)
```

```
## # A tibble: 1,704 x 7
##    country     continent  year lifeExp      pop gdpPercap pop_mn
##    <fct>       <fct>     <int>   <dbl>    <int>     <dbl>  <dbl>
##  1 Afghanistan Asia       1952    28.8  8425333      779.   8.43
##  2 Afghanistan Asia       1957    30.3  9240934      821.   9.24
##  3 Afghanistan Asia       1962    32.0 10267083      853.  10.3 
##  4 Afghanistan Asia       1967    34.0 11537966      836.  11.5 
##  5 Afghanistan Asia       1972    36.1 13079460      740.  13.1 
##  6 Afghanistan Asia       1977    38.4 14880372      786.  14.9 
##  7 Afghanistan Asia       1982    39.9 12881816      978.  12.9 
##  8 Afghanistan Asia       1987    40.8 13867957      852.  13.9 
##  9 Afghanistan Asia       1992    41.7 16317921      649.  16.3 
## 10 Afghanistan Asia       1997    41.8 22227415      635.  22.2 
## # … with 1,694 more rows
```

---
# create new column (4/n)

Let's overwite `pop_mn` where `pop_mn` is log of population. Note how the old `pop_mn` column is overwritten with log population values. Also, see how the `%>%` function allows us to perform multiple operations on the same dataframe.

```r
df %>% 
  mutate(pop_mn = pop / 1000000) %>%
  mutate(pop_mn = log(pop))
```

```
## # A tibble: 1,704 x 7
##    country     continent  year lifeExp      pop gdpPercap pop_mn
##    <fct>       <fct>     <int>   <dbl>    <int>     <dbl>  <dbl>
##  1 Afghanistan Asia       1952    28.8  8425333      779.   15.9
##  2 Afghanistan Asia       1957    30.3  9240934      821.   16.0
##  3 Afghanistan Asia       1962    32.0 10267083      853.   16.1
##  4 Afghanistan Asia       1967    34.0 11537966      836.   16.3
##  5 Afghanistan Asia       1972    36.1 13079460      740.   16.4
##  6 Afghanistan Asia       1977    38.4 14880372      786.   16.5
##  7 Afghanistan Asia       1982    39.9 12881816      978.   16.4
##  8 Afghanistan Asia       1987    40.8 13867957      852.   16.4
##  9 Afghanistan Asia       1992    41.7 16317921      649.   16.6
## 10 Afghanistan Asia       1997    41.8 22227415      635.   16.9
## # … with 1,694 more rows
```
…
---
# filter rows (2/n)

Only keeps the rows where continent is Europe.

```r
df %>% 
  filter(continent == "Europe")
```

```
## # A tibble: 360 x 6
##    country continent  year lifeExp     pop gdpPercap
##    <fct>   <fct>     <int>   <dbl>   <int>     <dbl>
##  1 Albania Europe     1952    55.2 1282697     1601.
##  2 Albania Europe     1957    59.3 1476505     1942.
##  3 Albania Europe     1962    64.8 1728137     2313.
##  4 Albania Europe     1967    66.2 1984060     2760.
##  5 Albania Europe     1972    67.7 2263554     3313.
##  6 Albania Europe     1977    68.9 2509048     3533.
##  7 Albania Europe     1982    70.4 2780097     3631.
##  8 Albania Europe     1987    72   3075321     3739.
##  9 Albania Europe     1992    71.6 3326498     2497.
## 10 Albania Europe     1997    73.0 3428038     3193.
## # … with 350 more rows
```

---
# filter rows (3/n)

Keeps all rows where continent is either Europe or Africa. (check no. of rows)

```r
df %>% 
  filter(continent %in% c("Africa", "Europe"))
```

```
## # A tibble: 984 x 6
##    country continent  year lifeExp     pop gdpPercap
##    <fct>   <fct>     <int>   <dbl>   <int>     <dbl>
##  1 Albania Europe     1952    55.2 1282697     1601.
##  2 Albania Europe     1957    59.3 1476505     1942.
##  3 Albania Europe     1962    64.8 1728137     2313.
##  4 Albania Europe     1967    66.2 1984060     2760.
##  5 Albania Europe     1972    67.7 2263554     3313.
##  6 Albania Europe     1977    68.9 2509048     3533.
##  7 Albania Europe     1982    70.4 2780097     3631.
##  8 Albania Europe     1987    72   3075321     3739.
##  9 Albania Europe     1992    71.6 3326498     2497.
## 10 Albania Europe     1997    73.0 3428038     3193.
## # … with 974 more rows
```
…
---
# filter columns (2/n)

```r
df %>% 
  dplyr::select(continent, country)
```

```
## # A tibble: 1,704 x 2
##    continent country    
##    <fct>     <fct>      
##  1 Asia      Afghanistan
##  2 Asia      Afghanistan
##  3 Asia      Afghanistan
##  4 Asia      Afghanistan
##  5 Asia      Afghanistan
##  6 Asia      Afghanistan
##  7 Asia      Afghanistan
##  8 Asia      Afghanistan
##  9 Asia      Afghanistan
## 10 Asia      Afghanistan
## # … with 1,694 more rows
```

---
# filter columns (3/n)

```r
df %>% 
  dplyr::select(-continent, -country)
```

```
## # A tibble: 1,704 x 4
##     year lifeExp      pop gdpPercap
##    <int>   <dbl>    <int>     <dbl>
##  1  1952    28.8  8425333      779.
##  2  1957    30.3  9240934      821.
##  3  1962    32.0 10267083      853.
##  4  1967    34.0 11537966      836.
##  5  1972    36.1 13079460      740.
##  6  1977    38.4 14880372      786.
##  7  1982    39.9 12881816      978.
##  8  1987    40.8 13867957      852.
##  9  1992    41.7 16317921      649.
## 10  1997    41.8 22227415      635.
## # … with 1,694 more rows
```
…
---
# order rows (2/n)

```r
df %>% 
  arrange(year, gdpPercap) # ascending order
```

```
## # A tibble: 1,704 x 6
##    country           continent  year lifeExp       pop gdpPercap
##    <fct>             <fct>     <int>   <dbl>     <int>     <dbl>
##  1 Lesotho           Africa     1952    42.1    748747      299.
##  2 Guinea-Bissau     Africa     1952    32.5    580653      300.
##  3 Eritrea           Africa     1952    35.9   1438760      329.
##  4 Myanmar           Asia       1952    36.3  20092996      331 
##  5 Burundi           Africa     1952    39.0   2445618      339.
##  6 Ethiopia          Africa     1952    34.1  20860941      362.
##  7 Cambodia          Asia       1952    39.4   4693836      368.
##  8 Malawi            Africa     1952    36.3   2917802      369.
##  9 Equatorial Guinea Africa     1952    34.5    216964      376.
## 10 China             Asia       1952    44   556263527      400.
## # … with 1,694 more rows
```

---
# order rows (3/n)

```r
df %>%
  arrange(desc(year), desc(gdpPercap)) # descending order
```

```
## # A tibble: 1,704 x 6
##    country          continent  year lifeExp       pop gdpPercap
##    <fct>            <fct>     <int>   <dbl>     <int>     <dbl>
##  1 Norway           Europe     2007    80.2   4627926    49357.
##  2 Kuwait           Asia       2007    77.6   2505559    47307.
##  3 Singapore        Asia       2007    80.0   4553009    47143.
##  4 United States    Americas   2007    78.2 301139947    42952.
##  5 Ireland          Europe     2007    78.9   4109086    40676.
##  6 Hong Kong, China Asia       2007    82.2   6980412    39725.
##  7 Switzerland      Europe     2007    81.7   7554661    37506.
##  8 Netherlands      Europe     2007    79.8  16570613    36798.
##  9 Canada           Americas   2007    80.7  33390141    36319.
## 10 Iceland          Europe     2007    81.8    301931    36181.
## # … with 1,694 more rows
```
…
---
# distinct (2/n)

```r
df %>% 
  distinct(.keep_all = T)
```

```
## # A tibble: 1,704 x 6
##    country     continent  year lifeExp      pop gdpPercap
##    <fct>       <fct>     <int>   <dbl>    <int>     <dbl>
##  1 Afghanistan Asia       1952    28.8  8425333      779.
##  2 Afghanistan Asia       1957    30.3  9240934      821.
##  3 Afghanistan Asia       1962    32.0 10267083      853.
##  4 Afghanistan Asia       1967    34.0 11537966      836.
##  5 Afghanistan Asia       1972    36.1 13079460      740.
##  6 Afghanistan Asia       1977    38.4 14880372      786.
##  7 Afghanistan Asia       1982    39.9 12881816      978.
##  8 Afghanistan Asia       1987    40.8 13867957      852.
##  9 Afghanistan Asia       1992    41.7 16317921      649.
## 10 Afghanistan Asia       1997    41.8 22227415      635.
## # … with 1,694 more rows
```

---
# distinct (3/n)

```r
df %>% 
  distinct(country, .keep_all = T)
```

```
## # A tibble: 142 x 6
##    country     continent  year lifeExp      pop gdpPercap
##    <fct>       <fct>     <int>   <dbl>    <int>     <dbl>
##  1 Afghanistan Asia       1952    28.8  8425333      779.
##  2 Albania     Europe     1952    55.2  1282697     1601.
##  3 Algeria     Africa     1952    43.1  9279525     2449.
##  4 Angola      Africa     1952    30.0  4232095     3521.
##  5 Argentina   Americas   1952    62.5 17876956     5911.
##  6 Australia   Oceania    1952    69.1  8691212    10040.
##  7 Austria     Europe     1952    66.8  6927772     6137.
##  8 Bahrain     Asia       1952    50.9   120447     9867.
##  9 Bangladesh  Asia       1952    37.5 46886859      684.
## 10 Belgium     Europe     1952    68    8730405     8343.
## # … with 132 more rows
```

---
# distinct (4/n)

```r
df %>% 
  distinct(country) 
```

```
## # A tibble: 142 x 1
##    country    
##    <fct>      
##  1 Afghanistan
##  2 Albania    
##  3 Algeria    
##  4 Angola     
##  5 Argentina  
##  6 Australia  
##  7 Austria    
##  8 Bahrain    
##  9 Bangladesh 
## 10 Belgium    
## # … with 132 more rows
```
…
---
# group operations (2/n)

```r
df %>% 
  group_by(continent, year) %>% # grouping variables
  summarize(mean_pop = mean(pop), mean_gdppc = mean(gdpPercap)) # group wise operation
```

```
## # A tibble: 60 x 4
## # Groups:   continent [5]
##    continent  year  mean_pop mean_gdppc
##    <fct>     <int>     <dbl>      <dbl>
##  1 Africa     1952  4570010.      1253.
##  2 Africa     1957  5093033.      1385.
##  3 Africa     1962  5702247.      1598.
##  4 Africa     1967  6447875.      2050.
##  5 Africa     1972  7305376.      2340.
##  6 Africa     1977  8328097.      2586.
##  7 Africa     1982  9602857.      2482.
##  8 Africa     1987 11054502.      2283.
##  9 Africa     1992 12674645.      2282.
## 10 Africa     1997 14304480.      2379.
## # … with 50 more rows
```

---
# reshape - long to wide (1/n)

Dataframes can be transformed from long to wide using the `tidyr::pivot_wider()` function. Here's how the long dataframe looks.

```r
df 
```

```
## # A tibble: 1,704 x 6
##    country     continent  year lifeExp      pop gdpPercap
##    <fct>       <fct>     <int>   <dbl>    <int>     <dbl>
##  1 Afghanistan Asia       1952    28.8  8425333      779.
##  2 Afghanistan Asia       1957    30.3  9240934      821.
##  3 Afghanistan Asia       1962    32.0 10267083      853.
##  4 Afghanistan Asia       1967    34.0 11537966      836.
##  5 Afghanistan Asia       1972    36.1 13079460      740.
##  6 Afghanistan Asia       1977    38.4 14880372      786.
##  7 Afghanistan Asia       1982    39.9 12881816      978.
##  8 Afghanistan Asia       1987    40.8 13867957      852.
##  9 Afghanistan Asia       1992    41.7 16317921      649.
## 10 Afghanistan Asia       1997    41.8 22227415      635.
## # … with 1,694 more rows
```
…
---
# reshape - wide to long (4/n)

You might have noticed that the long data doesn't look like the original long data. The original data was partially long, so we'll have to convert it back to wide.

```r
df_wide %>% # wide data
  pivot_longer(cols = c(-continent, -country), names_to = c("type", "year"),
               names_sep = "_", values_to = "values") %>% # long data
  pivot_wider(names_from = "type", values_from = "values") # original data
```

```
## # A tibble: 1,704 x 6
##    country     continent year  lifeExp      pop gdpPercap
##    <fct>       <fct>     <chr>   <dbl>    <dbl>     <dbl>
##  1 Afghanistan Asia      1952     28.8  8425333      779.
##  2 Afghanistan Asia      1957     30.3  9240934      821.
##  3 Afghanistan Asia      1962     32.0 10267083      853.
##  4 Afghanistan Asia      1967     34.0 11537966      836.
##  5 Afghanistan Asia      1972     36.1 13079460      740.
##  6 Afghanistan Asia      1977     38.4 14880372      786.
##  7 Afghanistan Asia      1982     39.9 12881816      978.
##  8 Afghanistan Asia      1987     40.8 13867957      852.
##  9 Afghanistan Asia      1992     41.7 16317921      649.
## 10 Afghanistan Asia      1997     41.8 22227415      635.
## # … with 1,694 more rows
```
…
---
# merging dataframes (3/n)

```r
df %>% 
  mutate(year = as.character(year)) %>%
  left_join(df_presidents, by = "year")
```

```
## # A tibble: 1,704 x 7
##    country     continent year  lifeExp      pop gdpPercap approval_rating
##    <fct>       <fct>     <chr>   <dbl>    <int>     <dbl>           <dbl>
##  1 Afghanistan Asia      1952     28.8  8425333      779.            29.7
##  2 Afghanistan Asia      1957     30.3  9240934      821.            65.2
##  3 Afghanistan Asia      1962     32.0 10267083      853.            71.5
##  4 Afghanistan Asia      1967     34.0 11537966      836.            45  
##  5 Afghanistan Asia      1972     36.1 13079460      740.            55  
##  6 Afghanistan Asia      1977     38.4 14880372      786.            NA  
##  7 Afghanistan Asia      1982     39.9 12881816      978.            NA  
##  8 Afghanistan Asia      1987     40.8 13867957      852.            NA  
##  9 Afghanistan Asia      1992     41.7 16317921      649.            NA  
## 10 Afghanistan Asia      1997     41.8 22227415      635.            NA  
## # … with 1,694 more rows
```
…
